{
  "project_info": {
    "project_number": "166075589492",
    "project_id": "quick-discount"
  },
  "client": [
    {
      "client_info": {
        "mobilesdk_app_id": "1:166075589492:android:7f326bbe2ae37c26",
        "android_client_info": {
          "package_name": "com.xintsolutions.quickdiscount"
        }
      },
      "oauth_client": [],
      "api_key": [
        {
          "current_key": "AIzaSyDrpsXy56H5MzHj4ttJO6T2GGyEnwxJv3k"
        }
      ],
      "services": {
        "analytics_service": {
          "status": 2,
          "analytics_property": {
            "tracking_id": "UA-88281119-1"
          }
        },
        "appinvite_service": {
          "status": 1,
          "other_platform_oauth_client": []
        },
        "ads_service": {
          "status": 1
        }
      }
    }
  ],
  "configuration_version": "1"
}